%YAML 1.1
%TAG !u! tag:unity3d.com,2011:
--- !u!162 &1
EditorUserSettings:
  m_ObjectHideFlags: 0
  serializedVersion: 4
  m_ConfigSettings:
    RecentlyUsedScenePath-0:
      value: 22424703114646680e0b0227036c6c111b07142f1f2b233e2867083debf42d
      flags: 0
    RecentlyUsedScenePath-1:
      value: 22424703114646642f0f1e29192d582f32181f657f0c66163f2c1873cfef302deee624a9cc332b730d07fc283b13002fbc1f0702e212
      flags: 0
    RecentlyUsedScenePath-2:
      value: 22424703114646680e07410419636c040f1b1d2e6c05293438251c21a2d0353be9a813f1e6372f303c42fc3f0130042cbd051c1fe604191f5101f34e15fa031603d156d014c10b05
      flags: 0
    RecentlyUsedScenePath-3:
      value: 22424703114646680e0b0227036c73150012496439262f2434
      flags: 0
    RecentlyUsedScenePath-4:
      value: 224247031146467102171f361920545026161b21630d3e3120391136f1af1120e3ea26e5e27a0c3f3c0cea721130082beb
      flags: 0
    RecentlyUsedScenePath-5:
      value: 22424703114646680e0b0227036c73150012147b623d28393930
      flags: 0
    RecentlyUsedScenePath-6:
      value: 22424703114646680e0b0227036c72151802563f22213229
      flags: 0
    UnityRemoteDevice:
      value: 225f4d46245b0d4902070862342649191512
      flags: 0
    vcSharedLogLevel:
      value: 0d5e400f0650
      flags: 0
  m_VCAutomaticAdd: 1
  m_VCDebugCom: 0
  m_VCDebugCmd: 0
  m_VCDebugOut: 0
  m_SemanticMergeMode: 2
  m_VCShowFailedCheckout: 1
  m_VCOverwriteFailedCheckoutAssets: 1
  m_VCProjectOverlayIcons: 1
  m_VCHierarchyOverlayIcons: 1
  m_VCOtherOverlayIcons: 1
  m_VCAllowAsyncUpdate: 1
